Who is the best Jalen in the NBA? – Izzy Faubion’s Blog
…
jalenlogs |> 
  filter(cum_min>2500)

# A tibble: 33 × 7
# Groups:   athlete_display_name [3]
   athlete_display_name First Last    game_date  minutes minutes_num cum_min
   <chr>                <chr> <chr>   <date>       <dbl>       <dbl>   <dbl>
 1 Jalen Green          Jalen Green   2025-04-23      35          35    2527
 2 Jalen Green          Jalen Green   2025-04-26      39          39    2566
 3 Jalen Green          Jalen Green   2025-04-28      25          25    2591
 4 Jalen Green          Jalen Green   2025-04-30      28          28    2619
 5 Jalen Brunson        Jalen Brunson 2025-05-01      42          42    2520
 6 Jalen Green          Jalen Green   2025-05-02      32          32    2651
 7 Jalen Green          Jalen Green   2025-05-04      30          30    2681
 8 Jalen Brunson        Jalen Brunson 2025-05-05      44          44    2564
 9 Jalen Brunson        Jalen Brunson 2025-05-07      38          38    2602
10 Jalen Brunson        Jalen Brunson 2025-05-10      40          40    2642
# ℹ 23 more rows
…
